{
    "success": true,
    "data": [
        {
            "taskTitle": "CTF #1",
            "taskDesc": "<p><span style=\"background-color:transparent\">Having issues, found an error, or think something isn't quite right? </span></p><p><span style=\"background-color:transparent\">Hit us up on Twitter with <b>@OSPASafeEscape</b><br /></span></p><p><span style=\"background-color:transparent\">RULES:</span></p><p><span style=\"background-color:transparent\">This\n CTF is designed to be for all skill levels.  Hints may or may not be \nprovided.  All answers must be in lowercase, grammar (commas) and \nspelling count, and spaces may be applicable as well.</span></p><p><span style=\"background-color:transparent\">Tools you may or may not need:</span></p><p><span style=\"background-color:transparent\">Base64 Encoding - </span><span style=\"background-color:transparent\">https://www.base64decode.org</span></p><div style=\"box-sizing:border-box;font-family:&quot;Segoe UI&quot;, system-ui, &quot;Apple Color Emoji&quot;, &quot;Segoe UI Emoji&quot;, sans-serif;font-size:14px;font-style:normal;font-variant-ligatures:normal;font-variant-caps:normal;font-weight:400;letter-spacing:normal;orphans:2;text-align:start;text-indent:0px;text-transform:none;white-space:normal;widows:2;word-spacing:0px\">HEX Editor - https://hexed.it<br /></div><div style=\"box-sizing:border-box;font-family:&quot;Segoe UI&quot;, system-ui, &quot;Apple Color Emoji&quot;, &quot;Segoe UI Emoji&quot;, sans-serif;font-size:14px;font-style:normal;font-variant-ligatures:normal;font-variant-caps:normal;font-weight:400;letter-spacing:normal;orphans:2;text-align:start;text-indent:0px;text-transform:none;white-space:normal;widows:2;word-spacing:0px\"><br /></div><div style=\"box-sizing:border-box;font-family:&quot;Segoe UI&quot;, system-ui, &quot;Apple Color Emoji&quot;, &quot;Segoe UI Emoji&quot;, sans-serif;font-size:14px;font-style:normal;font-variant-ligatures:normal;font-variant-caps:normal;font-weight:400;letter-spacing:normal;orphans:2;text-align:start;text-indent:0px;text-transform:none;white-space:normal;widows:2;word-spacing:0px\">DiskDrill - \nhttps://www.anyrecover.com/data-recovery/?media=googleppc&amp;gclid=CjwKCAjwruSHBhAtEiwA_qCppr5ZtEL4fHqcbqXu76KsMsCfbBrtezK4vwcZEac5Pu7UHR-WOkxzJBoC3S4QAvD_BwE</div><p><span style=\"background-color:transparent\">--------------------------------------------------------------------------------------------------------------------------------------------------------------------------------------------------------------------------------</span></p><p>Photo for Question #1:</p><p>PHOTO #1</p><p><img src=\"https://tryhackme-images.s3.amazonaws.com/user-uploads/60fa0addff19990042471b50/room-content/b9af33177c2710bdcdd4a55ca624cec5.jpg\" /></p><br />",
            "taskType": "none",
            "taskNo": 1,
            "taskCreated": "2021-07-23T00:23:17.236Z",
            "taskDeadline": null,
            "tasksInfo": [
                {
                    "question": "<p>In photo #1 above, who do I belong too? (Full Name)<br /></p>",
                    "hint": "Don't forget lowercase - you read the directions right?  :)",
                    "questionNo": 1,
                    "correct": false,
                    "extraPoints": 0,
                    "attempts": 0,
                    "submission": "",
                    "noAnswer": false,
                    "answerDesc": "Answer format: ****** ******"
                },
                {
                    "question": "<p>When is the most likely time that domestic violence takes place?<br /></p>",
                    "hint": "____ and ____",
                    "questionNo": 2,
                    "correct": false,
                    "extraPoints": 0,
                    "attempts": 0,
                    "submission": "",
                    "noAnswer": false,
                    "answerDesc": "Answer format: *** *** ***"
                },
                {
                    "question": "<p>More than ___________ phone calls are placed every day to domestic violence hotlines nationwide.<br /></p>",
                    "hint": "",
                    "questionNo": 3,
                    "correct": false,
                    "extraPoints": 0,
                    "attempts": 0,
                    "submission": "",
                    "noAnswer": false,
                    "answerDesc": "Answer format: **,***"
                },
                {
                    "question": "<p>When was OSE founded? (Year)<br /></p>",
                    "hint": "",
                    "questionNo": 4,
                    "correct": true,
                    "extraPoints": 0,
                    "attempts": 0,
                    "submission": "",
                    "noAnswer": false,
                    "answerDesc": "Answer format: ****"
                },
                {
                    "question": "<p>Professor Chaos was last seen\nnear 37.8199° N, 122.4783° W - Do you know what this may be?</p>",
                    "hint": "Don't forget lowercase - you read the directions right?  :)",
                    "questionNo": 5,
                    "correct": true,
                    "extraPoints": 0,
                    "attempts": 0,
                    "submission": "",
                    "noAnswer": false,
                    "answerDesc": "Answer format: ****** **** ******"
                }
            ],
            "uploadId": "",
            "questions": [
                {
                    "questionNo": 1,
                    "question": "<p>In photo #1 above, who do I belong too? (Full Name)<br /></p>",
                    "hint": "Don't forget lowercase - you read the directions right?  :)"
                },
                {
                    "questionNo": 2,
                    "question": "<p>When is the most likely time that domestic violence takes place?<br /></p>",
                    "hint": "____ and ____"
                },
                {
                    "questionNo": 3,
                    "question": "<p>More than ___________ phone calls are placed every day to domestic violence hotlines nationwide.<br /></p>",
                    "hint": ""
                },
                {
                    "questionNo": 4,
                    "question": "<p>When was OSE founded? (Year)<br /></p>",
                    "hint": ""
                },
                {
                    "questionNo": 5,
                    "question": "<p>Professor Chaos was last seen\nnear 37.8199° N, 122.4783° W - Do you know what this may be?</p>",
                    "hint": "Don't forget lowercase - you read the directions right?  :)"
                }
            ]
        },
        {
            "taskTitle": "CTF #2",
            "taskDesc": "<p></p><p><span style=\"background-color:transparent\">Having issues, found an error, or think something isn't quite right? </span></p><span style=\"background-color:transparent\">Hit us up on Twitter with <b>@OSPASafeEscape</b></span><p><span style=\"background-color:transparent\"></span></p><p><span style=\"background-color:transparent\"><br /></span></p><p><span style=\"background-color:transparent\">RULES:</span></p><p><span style=\"background-color:transparent\">This\n CTF is designed to be for all skill levels.  Hints may or may not be \nprovided.  All answers must be in lowercase, grammar (commas) and \nspelling count, and spaces may be applicable as well.</span></p><p><span style=\"background-color:transparent\">Tools you may or may not need:</span></p><p><span style=\"background-color:transparent\">Base64 Encoding - </span><span style=\"background-color:transparent\">https://www.base64decode.org</span></p><div style=\"box-sizing:border-box;font-family:&quot;Segoe UI&quot;, system-ui, &quot;Apple Color Emoji&quot;, &quot;Segoe UI Emoji&quot;, sans-serif;font-size:14px;font-style:normal;font-variant-ligatures:normal;font-variant-caps:normal;font-weight:400;letter-spacing:normal;orphans:2;text-align:start;text-indent:0px;text-transform:none;white-space:normal;widows:2;word-spacing:0px\">HEX Editor - https://hexed.it<br /></div><div style=\"box-sizing:border-box;font-family:&quot;Segoe UI&quot;, system-ui, &quot;Apple Color Emoji&quot;, &quot;Segoe UI Emoji&quot;, sans-serif;font-size:14px;font-style:normal;font-variant-ligatures:normal;font-variant-caps:normal;font-weight:400;letter-spacing:normal;orphans:2;text-align:start;text-indent:0px;text-transform:none;white-space:normal;widows:2;word-spacing:0px\"><br /></div><div style=\"box-sizing:border-box;font-family:&quot;Segoe UI&quot;, system-ui, &quot;Apple Color Emoji&quot;, &quot;Segoe UI Emoji&quot;, sans-serif;font-size:14px;font-style:normal;font-variant-ligatures:normal;font-variant-caps:normal;font-weight:400;letter-spacing:normal;orphans:2;text-align:start;text-indent:0px;text-transform:none;white-space:normal;widows:2;word-spacing:0px\">DiskDrill - \nhttps://www.anyrecover.com/data-recovery/?media=googleppc&amp;gclid=CjwKCAjwruSHBhAtEiwA_qCppr5ZtEL4fHqcbqXu76KsMsCfbBrtezK4vwcZEac5Pu7UHR-WOkxzJBoC3S4QAvD_BwE</div><span style=\"background-color:transparent\">-------------------------------------------------------------------------------------------------------------------------------------------------------------------------------------------------------------------------</span><p></p><p><span style=\"background-color:transparent\"></span>Google Drive link for Question #6 (Photo - ed4042dd46a6974d2f5a26c63ff32dbb.jpg): <br /></p><p></p><p><a href=\"https://drive.google.com/file/d/1HXgaMQ7QCXejUqQc_j7icjkp5liVVShv/view?usp=sharing\" target=\"_blank\">https://drive.google.com/file/d/1HXgaMQ7QCXejUqQc_j7icjkp5liVVShv/view?usp=sharing</a></p><p>Google Drive link for Question #7 (Photo - Loki.jpg):</p><p></p><div style=\"box-sizing:border-box;font-family:&quot;Segoe UI&quot;, system-ui, &quot;Apple Color Emoji&quot;, &quot;Segoe UI Emoji&quot;, sans-serif;font-size:14px;font-style:normal;font-variant-ligatures:normal;font-variant-caps:normal;font-weight:400;letter-spacing:normal;orphans:2;text-align:start;text-indent:0px;text-transform:none;white-space:normal;widows:2;word-spacing:0px\"><a href=\"https://drive.google.com/file/d/1NeCKnF28Yji-XO5aVfhRHxMbiss2zDmK/view?usp=sharing\" target=\"_blank\">https://drive.google.com/file/d/1NeCKnF28Yji-XO5aVfhRHxMbiss2zDmK/view?usp=sharing</a></div>",
            "taskType": "none",
            "taskNo": 2,
            "taskCreated": "2021-07-23T00:23:56.761Z",
            "taskDeadline": null,
            "tasksInfo": [
                {
                    "question": "<p>What\nis a set of actions that can help lower your risk of being hurt by your\npartner?</p>",
                    "hint": "",
                    "questionNo": 1,
                    "correct": false,
                    "extraPoints": 0,
                    "attempts": 0,
                    "submission": "",
                    "noAnswer": false,
                    "answerDesc": "Answer format: ****** ****"
                },
                {
                    "question": "<p>Domestic\nviolence is the leading cause of injury to women - more than car accidents,\nmuggings, and rapes combined.<span style=\"mso-spacerun:yes\"> (true or false)<br /></span></p>",
                    "hint": "",
                    "questionNo": 2,
                    "correct": false,
                    "extraPoints": 0,
                    "attempts": 0,
                    "submission": "",
                    "noAnswer": false,
                    "answerDesc": "Answer format: ****"
                },
                {
                    "question": "<p>The\ngunpowder plot was an effort to destroy Professor Chaos's favorite building\never, what was it?</p>",
                    "hint": "",
                    "questionNo": 3,
                    "correct": false,
                    "extraPoints": 0,
                    "attempts": 0,
                    "submission": "",
                    "noAnswer": true,
                    "answerDesc": "No answer needed"
                },
                {
                    "question": "<p>What\nis the national domestic hotline's number?</p>",
                    "hint": "No words in number, copied with same punctuation.",
                    "questionNo": 4,
                    "correct": false,
                    "extraPoints": 0,
                    "attempts": 0,
                    "submission": "",
                    "noAnswer": false,
                    "answerDesc": "Answer format: *.***.***.****"
                },
                {
                    "question": "<p>Professor Chaos was seen fleeing the olympics wearing a flag with a green rectangle on the left of a larger red one.  I think there was a coat of arms on it too.....  Where could they be going?<br /></p>",
                    "hint": "",
                    "questionNo": 5,
                    "correct": false,
                    "extraPoints": 0,
                    "attempts": 0,
                    "submission": "",
                    "noAnswer": false,
                    "answerDesc": "Answer format: ********"
                },
                {
                    "question": "<p>What flag will keep the hostages from chugging cream corn? (Use the Google Drive link above for photo ed4042dd46a6974d2f5a26c63ff32dbb.jpg)</p>",
                    "hint": "Did you read the directions?  Lowercase makes the world go round and round and round and round and round and round and round....  Wait what were we talking about again?",
                    "questionNo": 6,
                    "correct": false,
                    "extraPoints": 0,
                    "attempts": 0,
                    "submission": "",
                    "noAnswer": false,
                    "answerDesc": "Answer format: *********"
                },
                {
                    "question": "<p>What word will get the captives brownies? (Use the Google Drive link above for photo Loki.jpg)<br /></p>",
                    "hint": "Professor Chaos was once found riding a stegosaurus - true story, don't believe me then prove me wrong! ",
                    "questionNo": 7,
                    "correct": false,
                    "extraPoints": 0,
                    "attempts": 0,
                    "submission": "",
                    "noAnswer": false,
                    "answerDesc": "Answer format: *******"
                }
            ],
            "uploadId": "",
            "questions": [
                {
                    "questionNo": 1,
                    "question": "<p>What\nis a set of actions that can help lower your risk of being hurt by your\npartner?</p>",
                    "hint": ""
                },
                {
                    "questionNo": 2,
                    "question": "<p>Domestic\nviolence is the leading cause of injury to women - more than car accidents,\nmuggings, and rapes combined.<span style=\"mso-spacerun:yes\"> (true or false)<br /></span></p>",
                    "hint": ""
                },
                {
                    "questionNo": 3,
                    "question": "<p>The\ngunpowder plot was an effort to destroy Professor Chaos's favorite building\never, what was it?</p>",
                    "hint": ""
                },
                {
                    "questionNo": 4,
                    "question": "<p>What\nis the national domestic hotline's number?</p>",
                    "hint": "No words in number, copied with same punctuation."
                },
                {
                    "questionNo": 5,
                    "question": "<p>Professor Chaos was seen fleeing the olympics wearing a flag with a green rectangle on the left of a larger red one.  I think there was a coat of arms on it too.....  Where could they be going?<br /></p>",
                    "hint": ""
                },
                {
                    "questionNo": 6,
                    "question": "<p>What flag will keep the hostages from chugging cream corn? (Use the Google Drive link above for photo ed4042dd46a6974d2f5a26c63ff32dbb.jpg)</p>",
                    "hint": "Did you read the directions?  Lowercase makes the world go round and round and round and round and round and round and round....  Wait what were we talking about again?"
                },
                {
                    "questionNo": 7,
                    "question": "<p>What word will get the captives brownies? (Use the Google Drive link above for photo Loki.jpg)<br /></p>",
                    "hint": "Professor Chaos was once found riding a stegosaurus - true story, don't believe me then prove me wrong! "
                }
            ]
        },
        {
            "taskTitle": "CTF #3",
            "taskDesc": "<p></p><p><span style=\"background-color:transparent\">Having issues, found an error, or think something isn't quite right? </span></p><span style=\"background-color:transparent\">Hit us up on Twitter with <b>@OSPASafeEscape</b></span><p><span style=\"background-color:transparent\"></span></p><p><span style=\"background-color:transparent\"><br /></span></p><p><span style=\"background-color:transparent\">RULES:</span></p><p><span style=\"background-color:transparent\">This\n CTF is designed to be for all skill levels.  Hints may or may not be \nprovided.  All answers must be in lowercase, grammar (commas) and \nspelling count, and spaces may be applicable as well.</span></p><p><span style=\"background-color:transparent\">Tools you may or may not need:</span></p><p><span style=\"background-color:transparent\">Base64 Encoding - </span><span style=\"background-color:transparent\">https://www.base64decode.org</span></p><div style=\"box-sizing:border-box;font-family:&quot;Segoe UI&quot;, system-ui, &quot;Apple Color Emoji&quot;, &quot;Segoe UI Emoji&quot;, sans-serif;font-size:14px;font-style:normal;font-variant-ligatures:normal;font-variant-caps:normal;font-weight:400;letter-spacing:normal;orphans:2;text-align:start;text-indent:0px;text-transform:none;white-space:normal;widows:2;word-spacing:0px\">HEX Editor - https://hexed.it<br /></div><div style=\"box-sizing:border-box;font-family:&quot;Segoe UI&quot;, system-ui, &quot;Apple Color Emoji&quot;, &quot;Segoe UI Emoji&quot;, sans-serif;font-size:14px;font-style:normal;font-variant-ligatures:normal;font-variant-caps:normal;font-weight:400;letter-spacing:normal;orphans:2;text-align:start;text-indent:0px;text-transform:none;white-space:normal;widows:2;word-spacing:0px\"><br /></div><div style=\"box-sizing:border-box;font-family:&quot;Segoe UI&quot;, system-ui, &quot;Apple Color Emoji&quot;, &quot;Segoe UI Emoji&quot;, sans-serif;font-size:14px;font-style:normal;font-variant-ligatures:normal;font-variant-caps:normal;font-weight:400;letter-spacing:normal;orphans:2;text-align:start;text-indent:0px;text-transform:none;white-space:normal;widows:2;word-spacing:0px\">DiskDrill - \nhttps://www.anyrecover.com/data-recovery/?media=googleppc&amp;gclid=CjwKCAjwruSHBhAtEiwA_qCppr5ZtEL4fHqcbqXu76KsMsCfbBrtezK4vwcZEac5Pu7UHR-WOkxzJBoC3S4QAvD_BwE</div><span style=\"background-color:transparent\">--------------------------------------------------------------------------------------------------------------------------------------------------------------------------------------------------------------------------------</span><p></p><br /><p>Photo for Question #5:</p><p>PHOTO #1<br /></p><p><img src=\"https://tryhackme-images.s3.amazonaws.com/user-uploads/60fa0addff19990042471b50/room-content/123802b3007369a6f5905115a8eb8214.jpg\" /><br /></p>",
            "taskType": "none",
            "taskNo": 3,
            "taskCreated": "2021-07-23T00:24:19.666Z",
            "taskDeadline": null,
            "tasksInfo": [
                {
                    "question": "I am most likely to form a hamster army, who am I?<br />",
                    "hint": "Think kidnapped.....",
                    "questionNo": 1,
                    "correct": false,
                    "extraPoints": 0,
                    "attempts": 0,
                    "submission": "",
                    "noAnswer": false,
                    "answerDesc": "Answer format: ****** *******"
                },
                {
                    "question": "<p>This\ndocument is intended to prohibit your partner from physically coming near you\nor harming or harassing you, your children, or other loved ones.</p>",
                    "hint": "Not \"order of ____\", but ______ order.",
                    "questionNo": 2,
                    "correct": false,
                    "extraPoints": 0,
                    "attempts": 0,
                    "submission": "",
                    "noAnswer": false,
                    "answerDesc": "Answer format: *********** *****"
                },
                {
                    "question": "<p>Which\nState has the highest instances of domestic violence (Both men and women)?</p>",
                    "hint": "",
                    "questionNo": 3,
                    "correct": false,
                    "extraPoints": 0,
                    "attempts": 0,
                    "submission": "",
                    "noAnswer": false,
                    "answerDesc": "Answer format: ********"
                },
                {
                    "question": "<p>_____\npeople per minute on average are physically abused by an intimate partner.<span style=\"mso-spacerun:yes\">  </span>This equates to more than 10 million women\nand men.</p>",
                    "hint": "",
                    "questionNo": 4,
                    "correct": false,
                    "extraPoints": 0,
                    "attempts": 0,
                    "submission": "",
                    "noAnswer": false,
                    "answerDesc": "Answer format: **"
                },
                {
                    "question": "<p>These shoes are FIRE!!!!!  Who wished they had found these in 2020? (Refer to PHOTO #1 in the description above)</p>",
                    "hint": "",
                    "questionNo": 5,
                    "correct": false,
                    "extraPoints": 0,
                    "attempts": 0,
                    "submission": "",
                    "noAnswer": false,
                    "answerDesc": "Answer format: ****** ******"
                },
                {
                    "question": "<p>In his best Professor Chaos voice - \"I hear Chicago is a great place to visit, know what state I'm in?\"<br /></p>",
                    "hint": "",
                    "questionNo": 6,
                    "correct": false,
                    "extraPoints": 0,
                    "attempts": 0,
                    "submission": "",
                    "noAnswer": false,
                    "answerDesc": "Answer format: *******"
                }
            ],
            "uploadId": "",
            "questions": [
                {
                    "questionNo": 1,
                    "question": "I am most likely to form a hamster army, who am I?<br />",
                    "hint": "Think kidnapped....."
                },
                {
                    "questionNo": 2,
                    "question": "<p>This\ndocument is intended to prohibit your partner from physically coming near you\nor harming or harassing you, your children, or other loved ones.</p>",
                    "hint": "Not \"order of ____\", but ______ order."
                },
                {
                    "questionNo": 3,
                    "question": "<p>Which\nState has the highest instances of domestic violence (Both men and women)?</p>",
                    "hint": ""
                },
                {
                    "questionNo": 4,
                    "question": "<p>_____\npeople per minute on average are physically abused by an intimate partner.<span style=\"mso-spacerun:yes\">  </span>This equates to more than 10 million women\nand men.</p>",
                    "hint": ""
                },
                {
                    "questionNo": 5,
                    "question": "<p>These shoes are FIRE!!!!!  Who wished they had found these in 2020? (Refer to PHOTO #1 in the description above)</p>",
                    "hint": ""
                },
                {
                    "questionNo": 6,
                    "question": "<p>In his best Professor Chaos voice - \"I hear Chicago is a great place to visit, know what state I'm in?\"<br /></p>",
                    "hint": ""
                }
            ]
        },
        {
            "taskTitle": "CTF #4",
            "taskDesc": "<p><span style=\"background-color:transparent\">Having issues, found an error, or think something isn't quite right? </span></p><span style=\"background-color:transparent\">Hit us up on Twitter with <b>@OSPASafeEscape</b></span><p><span style=\"background-color:transparent\"></span></p><p><span style=\"background-color:transparent\"><br /></span></p><p><span style=\"background-color:transparent\">RULES:</span></p><p><span style=\"background-color:transparent\">This\n CTF is designed to be for all skill levels.  Hints may or may not be \nprovided.  All answers must be in lowercase, grammar (commas) and \nspelling count, and spaces may be applicable as well.</span></p><p><span style=\"background-color:transparent\">Tools you may or may not need:</span></p><p><span style=\"background-color:transparent\">Base64 Encoding - </span><span style=\"background-color:transparent\">https://www.base64decode.org</span></p><div style=\"box-sizing:border-box;font-family:&quot;Segoe UI&quot;, system-ui, &quot;Apple Color Emoji&quot;, &quot;Segoe UI Emoji&quot;, sans-serif;font-size:14px;font-style:normal;font-variant-ligatures:normal;font-variant-caps:normal;font-weight:400;letter-spacing:normal;orphans:2;text-align:start;text-indent:0px;text-transform:none;white-space:normal;widows:2;word-spacing:0px\">HEX Editor - https://hexed.it<br /></div><div style=\"box-sizing:border-box;font-family:&quot;Segoe UI&quot;, system-ui, &quot;Apple Color Emoji&quot;, &quot;Segoe UI Emoji&quot;, sans-serif;font-size:14px;font-style:normal;font-variant-ligatures:normal;font-variant-caps:normal;font-weight:400;letter-spacing:normal;orphans:2;text-align:start;text-indent:0px;text-transform:none;white-space:normal;widows:2;word-spacing:0px\"><br /></div><div style=\"box-sizing:border-box;font-family:&quot;Segoe UI&quot;, system-ui, &quot;Apple Color Emoji&quot;, &quot;Segoe UI Emoji&quot;, sans-serif;font-size:14px;font-style:normal;font-variant-ligatures:normal;font-variant-caps:normal;font-weight:400;letter-spacing:normal;orphans:2;text-align:start;text-indent:0px;text-transform:none;white-space:normal;widows:2;word-spacing:0px\">DiskDrill - \nhttps://www.anyrecover.com/data-recovery/?media=googleppc&amp;gclid=CjwKCAjwruSHBhAtEiwA_qCppr5ZtEL4fHqcbqXu76KsMsCfbBrtezK4vwcZEac5Pu7UHR-WOkxzJBoC3S4QAvD_BwE</div><span style=\"background-color:transparent\">--------------------------------------------------------------------------------------------------------------------------------------------------------------------------------------------------------------------------------</span><p><br /></p><p><span style=\"background-color:transparent\">Photo for Question #1:</span></p><p><span style=\"background-color:transparent\">PHOTO #1</span></p><p><img src=\"https://tryhackme-images.s3.amazonaws.com/user-uploads/60fa0addff19990042471b50/room-content/0ad3481309685561147dd2b0488d1768.jpg\" /><br /></p>",
            "taskType": "none",
            "taskNo": 4,
            "taskCreated": "2021-07-23T00:24:20.598Z",
            "taskDeadline": null,
            "tasksInfo": [
                {
                    "question": "...and I quote, \"Is this final boss enough for you?\" - Who am I? (Refer to PHOTO #1 in the description above)<br />",
                    "hint": "",
                    "questionNo": 1,
                    "correct": false,
                    "extraPoints": 0,
                    "attempts": 0,
                    "submission": "",
                    "noAnswer": false,
                    "answerDesc": "Answer format: * ******** ********"
                },
                {
                    "question": "<p>I\nam a form of software that when installed on a target device gives a user the\nability to exert control over their victims.<span style=\"mso-spacerun:yes\"> \n</span>I can track their location, intercept phone calls, text messages, and\nemail, eavesdrop on phone calls, and even record remote conversations.<span style=\"mso-spacerun:yes\">  </span>What am I?</p>",
                    "hint": "",
                    "questionNo": 2,
                    "correct": false,
                    "extraPoints": 0,
                    "attempts": 0,
                    "submission": "",
                    "noAnswer": false,
                    "answerDesc": "Answer format: ***********"
                },
                {
                    "question": "<p>This\nis one of the most common ways a victim of abuse can be compromised\ndigitally.<span style=\"mso-spacerun:yes\">  </span>This can be corrected quite\neasily and length always trumps complexity.</p>",
                    "hint": "",
                    "questionNo": 3,
                    "correct": false,
                    "extraPoints": 0,
                    "attempts": 0,
                    "submission": "",
                    "noAnswer": false,
                    "answerDesc": "Answer format: ******* **** ****"
                },
                {
                    "question": "<p>Boys\nwho witness domestic violence are 2 times as likely to abuse their own partners\nand children when they become adults.<span style=\"mso-spacerun:yes\">  </span>true or false?</p>",
                    "hint": "",
                    "questionNo": 4,
                    "correct": false,
                    "extraPoints": 0,
                    "attempts": 0,
                    "submission": "",
                    "noAnswer": false,
                    "answerDesc": "Answer format: ****"
                },
                {
                    "question": "<p>Professor Chaos was just spotted in a hot tub near a beach.  Someone \nsaid he was trying to find safe haven in a country that had a lot of \ncoastlines one that may be the largest lusophone country in the world.  \nWhere oh where could this trickster be?</p>",
                    "hint": "Barry Manilow....",
                    "questionNo": 5,
                    "correct": false,
                    "extraPoints": 0,
                    "attempts": 0,
                    "submission": "",
                    "noAnswer": false,
                    "answerDesc": "Answer format: ******"
                }
            ],
            "uploadId": "",
            "questions": [
                {
                    "questionNo": 1,
                    "question": "...and I quote, \"Is this final boss enough for you?\" - Who am I? (Refer to PHOTO #1 in the description above)<br />",
                    "hint": ""
                },
                {
                    "questionNo": 2,
                    "question": "<p>I\nam a form of software that when installed on a target device gives a user the\nability to exert control over their victims.<span style=\"mso-spacerun:yes\"> \n</span>I can track their location, intercept phone calls, text messages, and\nemail, eavesdrop on phone calls, and even record remote conversations.<span style=\"mso-spacerun:yes\">  </span>What am I?</p>",
                    "hint": ""
                },
                {
                    "questionNo": 3,
                    "question": "<p>This\nis one of the most common ways a victim of abuse can be compromised\ndigitally.<span style=\"mso-spacerun:yes\">  </span>This can be corrected quite\neasily and length always trumps complexity.</p>",
                    "hint": ""
                },
                {
                    "questionNo": 4,
                    "question": "<p>Boys\nwho witness domestic violence are 2 times as likely to abuse their own partners\nand children when they become adults.<span style=\"mso-spacerun:yes\">  </span>true or false?</p>",
                    "hint": ""
                },
                {
                    "questionNo": 5,
                    "question": "<p>Professor Chaos was just spotted in a hot tub near a beach.  Someone \nsaid he was trying to find safe haven in a country that had a lot of \ncoastlines one that may be the largest lusophone country in the world.  \nWhere oh where could this trickster be?</p>",
                    "hint": "Barry Manilow...."
                }
            ]
        },
        {
            "taskTitle": "CTF #5",
            "taskDesc": "<p><br /></p><p><span style=\"background-color:transparent\">Having issues, found an error, or think something isn't quite right? </span></p><span style=\"background-color:transparent\">Hit us up on Twitter with <b>@OSPASafeEscape</b></span><p><span style=\"background-color:transparent\"></span></p><p><span style=\"background-color:transparent\"><br /></span></p><p><span style=\"background-color:transparent\">RULES:</span></p><p><span style=\"background-color:transparent\">This\n CTF is designed to be for all skill levels.  Hints may or may not be \nprovided.  All answers must be in lowercase, grammar (commas) and \nspelling count, and spaces may be applicable as well.</span></p><p><span style=\"background-color:transparent\">Tools you may or may not need:</span></p><p><span style=\"background-color:transparent\">Base64 Encoding - </span><span style=\"background-color:transparent\">https://www.base64decode.org</span></p><div style=\"box-sizing:border-box;font-family:&quot;Segoe UI&quot;, system-ui, &quot;Apple Color Emoji&quot;, &quot;Segoe UI Emoji&quot;, sans-serif;font-size:14px;font-style:normal;font-variant-ligatures:normal;font-variant-caps:normal;font-weight:400;letter-spacing:normal;orphans:2;text-align:start;text-indent:0px;text-transform:none;white-space:normal;widows:2;word-spacing:0px\">HEX Editor - https://hexed.it<br /></div><div style=\"box-sizing:border-box;font-family:&quot;Segoe UI&quot;, system-ui, &quot;Apple Color Emoji&quot;, &quot;Segoe UI Emoji&quot;, sans-serif;font-size:14px;font-style:normal;font-variant-ligatures:normal;font-variant-caps:normal;font-weight:400;letter-spacing:normal;orphans:2;text-align:start;text-indent:0px;text-transform:none;white-space:normal;widows:2;word-spacing:0px\"><br /></div><div style=\"box-sizing:border-box;font-family:&quot;Segoe UI&quot;, system-ui, &quot;Apple Color Emoji&quot;, &quot;Segoe UI Emoji&quot;, sans-serif;font-size:14px;font-style:normal;font-variant-ligatures:normal;font-variant-caps:normal;font-weight:400;letter-spacing:normal;orphans:2;text-align:start;text-indent:0px;text-transform:none;white-space:normal;widows:2;word-spacing:0px\">DiskDrill - https://www.anyrecover.com/data-recovery/?media=googleppc&amp;gclid=CjwKCAjwruSHBhAtEiwA_qCppr5ZtEL4fHqcbqXu76KsMsCfbBrtezK4vwcZEac5Pu7UHR-WOkxzJBoC3S4QAvD_BwE</div><p><span style=\"background-color:transparent\"></span></p><span style=\"background-color:transparent\">--------------------------------------------------------------------------------------------------------------------------------------------------------------------------------------------------------------------------------</span><p><br /></p><p>Google Drive link for Question #5 (AOLboot.exe):  <br /></p><div style=\"box-sizing:border-box;font-family:&quot;Segoe UI&quot;, system-ui, &quot;Apple Color Emoji&quot;, &quot;Segoe UI Emoji&quot;, sans-serif;font-size:14px;font-style:normal;font-variant-ligatures:normal;font-variant-caps:normal;font-weight:400;letter-spacing:normal;orphans:2;text-align:start;text-indent:0px;text-transform:none;white-space:normal;widows:2;word-spacing:0px\"><div style=\"box-sizing:border-box;font-family:&quot;Segoe UI&quot;, system-ui, &quot;Apple Color Emoji&quot;, &quot;Segoe UI Emoji&quot;, sans-serif;font-size:14px;font-style:normal;font-variant-ligatures:normal;font-variant-caps:normal;font-weight:400;letter-spacing:normal;orphans:2;text-align:start;text-indent:0px;text-transform:none;white-space:normal;widows:2;word-spacing:0px\"><a href=\"https://drive.google.com/file/d/1LlfcaYxBwTZqfcB4p-EMPGgKgKLMizc1/view?usp=sharing\" target=\"_blank\">https://drive.google.com/file/d/1rJHIna2s7-RYTKGAypUjqQj0u0TEnLEv/view?usp=sharing</a></div></div><p><br /><span style=\"background-color:transparent\">Photo for Question #2:</span></p><p><span style=\"background-color:transparent\">PHOTO #1</span></p><p><img src=\"https://tryhackme-images.s3.amazonaws.com/user-uploads/60fa0addff19990042471b50/room-content/9d8293e036f7b0b3e2fb9987ac5bd696.jpg\" /><span style=\"background-color:transparent\"><br /></span></p><p><span style=\"background-color:transparent\"></span></p><p><span style=\"background-color:transparent\"></span></p>",
            "taskType": "none",
            "taskNo": 5,
            "taskCreated": "2021-07-23T00:24:23.320Z",
            "taskDeadline": null,
            "tasksInfo": [
                {
                    "question": "<p>Where are the kidnappers holding the victims?<br /></p>",
                    "hint": "____, ____",
                    "questionNo": 1,
                    "correct": false,
                    "extraPoints": 0,
                    "attempts": 0,
                    "submission": "",
                    "noAnswer": false,
                    "answerDesc": "Answer format: *********, ********"
                },
                {
                    "question": "Best date ever!  Said only one person - Who was this?  (Refer to PHOTO #1 in the description above)<br />",
                    "hint": "",
                    "questionNo": 2,
                    "correct": false,
                    "extraPoints": 0,
                    "attempts": 0,
                    "submission": "",
                    "noAnswer": false,
                    "answerDesc": "Answer format: ****** ********"
                },
                {
                    "question": "19.3\nMillion women and 5.1 million men in the US have been the victims of this type\nof domestic violence...",
                    "hint": "",
                    "questionNo": 3,
                    "correct": false,
                    "extraPoints": 0,
                    "attempts": 0,
                    "submission": "",
                    "noAnswer": false,
                    "answerDesc": "Answer format: ********"
                },
                {
                    "question": "<p>From aol_boot.exe what type of volumes were? (See above description for Google Drive link to the file)</p>",
                    "hint": "This is a CTF! There's no hints in a CTF!  Ok fine, rose are red, violets are orange, mighty fine attitude for a VERY HIGH DEVICE.",
                    "questionNo": 4,
                    "correct": false,
                    "extraPoints": 0,
                    "attempts": 0,
                    "submission": "",
                    "noAnswer": false,
                    "answerDesc": "Answer format: ***"
                },
                {
                    "question": "<p><span class=\"scrambled-word\">uutasymssat ollemrdmnr aes ur mbkio<br /></span></p>",
                    "hint": "Yea, Professor Chaos was kinda rambling here, I think this may be where he actually is...  Maybe just a clue...",
                    "questionNo": 5,
                    "correct": false,
                    "extraPoints": 0,
                    "attempts": 0,
                    "submission": "",
                    "noAnswer": false,
                    "answerDesc": "Answer format: ********* ******** *** ***** ******"
                },
                {
                    "question": "Intimate\npartner violence accounts for _____ of all violent crime.\n\n",
                    "hint": "__%",
                    "questionNo": 6,
                    "correct": false,
                    "extraPoints": 0,
                    "attempts": 0,
                    "submission": "",
                    "noAnswer": false,
                    "answerDesc": "Answer format: ***"
                },
                {
                    "question": "<p>What flag do you have with coffee in the aol_boot.exe?<br /></p>",
                    "hint": "Names are hard and getting a new one is VERY HARD DUH.  Jeez Pedro I wouldn't vote for you.",
                    "questionNo": 7,
                    "correct": false,
                    "extraPoints": 0,
                    "attempts": 0,
                    "submission": "",
                    "noAnswer": false,
                    "answerDesc": "Answer format: ***** *****"
                },
                {
                    "question": "<p>How many files were in the container? (aol_boot)<br /></p>",
                    "hint": "It's 4, definitely 4.",
                    "questionNo": 8,
                    "correct": false,
                    "extraPoints": 0,
                    "attempts": 0,
                    "submission": "",
                    "noAnswer": false,
                    "answerDesc": "Answer format: *"
                },
                {
                    "question": "<p>What was the flag to get all the brownies?<br /></p>",
                    "hint": "See fooooooooood!",
                    "questionNo": 9,
                    "correct": false,
                    "extraPoints": 0,
                    "attempts": 0,
                    "submission": "",
                    "noAnswer": false,
                    "answerDesc": "Answer format: ****** ****"
                },
                {
                    "question": "<p>What was the name of the closeup picture?<br /></p>",
                    "hint": "Give me some of that yum yum chocolate chips right meow!",
                    "questionNo": 10,
                    "correct": false,
                    "extraPoints": 0,
                    "attempts": 0,
                    "submission": "",
                    "noAnswer": false,
                    "answerDesc": "Answer format: ***"
                },
                {
                    "question": "<p>What type of food was not for humans?<br /></p>",
                    "hint": "",
                    "questionNo": 11,
                    "correct": false,
                    "extraPoints": 0,
                    "attempts": 0,
                    "submission": "",
                    "noAnswer": false,
                    "answerDesc": "Answer format: ***"
                }
            ],
            "uploadId": "",
            "questions": [
                {
                    "questionNo": 1,
                    "question": "<p>Where are the kidnappers holding the victims?<br /></p>",
                    "hint": "____, ____"
                },
                {
                    "questionNo": 2,
                    "question": "Best date ever!  Said only one person - Who was this?  (Refer to PHOTO #1 in the description above)<br />",
                    "hint": ""
                },
                {
                    "questionNo": 3,
                    "question": "19.3\nMillion women and 5.1 million men in the US have been the victims of this type\nof domestic violence...",
                    "hint": ""
                },
                {
                    "questionNo": 4,
                    "question": "<p>From aol_boot.exe what type of volumes were? (See above description for Google Drive link to the file)</p>",
                    "hint": "This is a CTF! There's no hints in a CTF!  Ok fine, rose are red, violets are orange, mighty fine attitude for a VERY HIGH DEVICE."
                },
                {
                    "questionNo": 5,
                    "question": "<p><span class=\"scrambled-word\">uutasymssat ollemrdmnr aes ur mbkio<br /></span></p>",
                    "hint": "Yea, Professor Chaos was kinda rambling here, I think this may be where he actually is...  Maybe just a clue..."
                },
                {
                    "questionNo": 6,
                    "question": "Intimate\npartner violence accounts for _____ of all violent crime.\n\n",
                    "hint": "__%"
                },
                {
                    "questionNo": 7,
                    "question": "<p>What flag do you have with coffee in the aol_boot.exe?<br /></p>",
                    "hint": "Names are hard and getting a new one is VERY HARD DUH.  Jeez Pedro I wouldn't vote for you."
                },
                {
                    "questionNo": 8,
                    "question": "<p>How many files were in the container? (aol_boot)<br /></p>",
                    "hint": "It's 4, definitely 4."
                },
                {
                    "questionNo": 9,
                    "question": "<p>What was the flag to get all the brownies?<br /></p>",
                    "hint": "See fooooooooood!"
                },
                {
                    "questionNo": 10,
                    "question": "<p>What was the name of the closeup picture?<br /></p>",
                    "hint": "Give me some of that yum yum chocolate chips right meow!"
                },
                {
                    "questionNo": 11,
                    "question": "<p>What type of food was not for humans?<br /></p>",
                    "hint": ""
                }
            ]
        },
        {
            "taskTitle": "Super Secret Extra Special Limited Time Shiny OSINT Number Challenge",
            "taskDesc": "<p><span style=\"background-color:rgb(255, 255, 0)\"><b><u>****CHALLENGE LEVEL -&gt; HARD**** </u></b><b><u>You've been warned  :)</u></b></span></p><p><span style=\"background-color:rgb(255, 255, 255)\">Who should do this challenge:</span></p><ul><li><span style=\"background-color:rgb(255, 255, 255)\">ANYONE who loves to ride the struggle bus!</span></li></ul><p><span style=\"background-color:transparent\"><span style=\"background-color:rgb(255, 0, 0)\"><span style=\"background-color:rgb(255, 255, 0)\"><span style=\"background-color:rgb(255, 255, 255)\">A couple notes about this challenge so you don't pull your hair out:<br /></span></span></span></span></p><ul><li><span style=\"background-color:transparent\"><span style=\"background-color:rgb(255, 0, 0)\"><span style=\"background-color:rgb(255, 255, 0)\"><span style=\"background-color:rgb(255, 255, 255)\">Information may not be synchronously given to complete this challenge</span></span></span></span></li><li>If you are<span style=\"background-color:transparent\"> having issues, found an error, or think something isn't quite right, please send a message on Twitter to:</span><span style=\"background-color:transparent\"> </span><span style=\"background-color:transparent\"><b>@OSPASafeEscape</b></span><span style=\"background-color:transparent\"><span style=\"background-color:rgb(255, 0, 0)\"><span style=\"background-color:rgb(255, 255, 0)\"><span style=\"background-color:rgb(255, 255, 255)\"></span></span><b><u><span style=\"background-color:rgb(255, 255, 0)\"></span></u></b></span></span><span style=\"background-color:transparent\"><span style=\"background-color:rgb(255, 0, 0)\"></span></span><br /><span style=\"background-color:transparent\"><span style=\"background-color:rgb(255, 0, 0)\"></span></span></li></ul><p><span style=\"background-color:transparent\">RULES:</span></p><p><span style=\"background-color:transparent\">This\n CTF is designed to be for all skill levels.  Hints may or may not be \nprovided.  All answers must be in lowercase, grammar (commas) and \nspelling count, and spaces may be applicable as well.</span></p><p><span style=\"background-color:transparent\">Tools you may or may not need:</span></p><p><span style=\"background-color:transparent\">Base64 Encoding - </span><span style=\"background-color:transparent\">https://www.base64decode.org</span></p><div style=\"box-sizing:border-box;font-family:&quot;Segoe UI&quot;, system-ui, &quot;Apple Color Emoji&quot;, &quot;Segoe UI Emoji&quot;, sans-serif;font-size:14px;font-style:normal;font-variant-ligatures:normal;font-variant-caps:normal;font-weight:400;letter-spacing:normal;orphans:2;text-align:start;text-indent:0px;text-transform:none;white-space:normal;widows:2;word-spacing:0px\">HEX Editor - https://hexed.it<br /></div><div style=\"box-sizing:border-box;font-family:&quot;Segoe UI&quot;, system-ui, &quot;Apple Color Emoji&quot;, &quot;Segoe UI Emoji&quot;, sans-serif;font-size:14px;font-style:normal;font-variant-ligatures:normal;font-variant-caps:normal;font-weight:400;letter-spacing:normal;orphans:2;text-align:start;text-indent:0px;text-transform:none;white-space:normal;widows:2;word-spacing:0px\"><br /></div><div style=\"box-sizing:border-box;font-family:&quot;Segoe UI&quot;, system-ui, &quot;Apple Color Emoji&quot;, &quot;Segoe UI Emoji&quot;, sans-serif;font-size:14px;font-style:normal;font-variant-ligatures:normal;font-variant-caps:normal;font-weight:400;letter-spacing:normal;orphans:2;text-align:start;text-indent:0px;text-transform:none;white-space:normal;widows:2;word-spacing:0px\">DiskDrill\n - \nhttps://www.anyrecover.com/data-recovery/?media=googleppc&amp;gclid=CjwKCAjwruSHBhAtEiwA_qCppr5ZtEL4fHqcbqXu76KsMsCfbBrtezK4vwcZEac5Pu7UHR-WOkxzJBoC3S4QAvD_BwE</div><p><span style=\"background-color:transparent\"></span></p><span style=\"background-color:transparent\">--------------------------------------------------------------------------------------------------------------------------------------------------------------------------------------------------------------------------------</span><p>Google Drive for archive.dmg file, this will be used for this entire OSINT CTF:</p><div style=\"box-sizing:border-box;font-family:&quot;Segoe UI&quot;, system-ui, &quot;Apple Color Emoji&quot;, &quot;Segoe UI Emoji&quot;, sans-serif;font-size:14px;font-style:normal;font-variant-ligatures:normal;font-variant-caps:normal;font-weight:400;letter-spacing:normal;orphans:2;text-align:start;text-indent:0px;text-transform:none;white-space:normal;widows:2;word-spacing:0px\"><a href=\"https://drive.google.com/file/d/1BYZVnVoZN0l-f43CFWW3LtLzqJ4wTq6r/view?usp=sharing\" target=\"_blank\">https://drive.google.com/file/d/1BYZVnVoZN0l-f43CFWW3LtLzqJ4wTq6r/view?usp=sharing</a></div><p><br /><br /></p>",
            "taskType": "none",
            "taskNo": 6,
            "taskCreated": "2021-07-24T03:44:15.238Z",
            "taskDeadline": null,
            "tasksInfo": [
                {
                    "question": "What was the password to open the archive.dmg file?<br />",
                    "hint": "",
                    "questionNo": 1,
                    "correct": false,
                    "extraPoints": 0,
                    "attempts": 0,
                    "submission": "",
                    "noAnswer": false,
                    "answerDesc": "Answer format: ***** ****** ** **** *****"
                },
                {
                    "question": "<p>What was in the archive.dmg file?<br /></p>",
                    "hint": "Name in lowercase as it is found.",
                    "questionNo": 2,
                    "correct": false,
                    "extraPoints": 0,
                    "attempts": 0,
                    "submission": "",
                    "noAnswer": false,
                    "answerDesc": "Answer format: ******** ********.***"
                },
                {
                    "question": "<p>What was the password for what was found inside the archive.dmg file?<br /></p>",
                    "hint": "We already gave you the password you just didn't listen!",
                    "questionNo": 3,
                    "correct": false,
                    "extraPoints": 0,
                    "attempts": 0,
                    "submission": "",
                    "noAnswer": false,
                    "answerDesc": "Answer format: *** ********* *** * ****** **** *** *********** ***** ** *** ***"
                },
                {
                    "question": "What is the password for this file:  Xfinity_install_file?<br />",
                    "hint": "One of these things isn't like the other, neither is chaos when you get into twitter battles.",
                    "questionNo": 4,
                    "correct": false,
                    "extraPoints": 0,
                    "attempts": 0,
                    "submission": "",
                    "noAnswer": false,
                    "answerDesc": "Answer format: ****************"
                },
                {
                    "question": "<p>What is the flag inside of the Xfinity_install_file?<br /></p>",
                    "hint": "Go get your aol_boot disk!",
                    "questionNo": 5,
                    "correct": false,
                    "extraPoints": 0,
                    "attempts": 0,
                    "submission": "",
                    "noAnswer": false,
                    "answerDesc": "Answer format: **** *******"
                },
                {
                    "question": "<p>What type of file was encrypted with a password?<br /></p>",
                    "hint": "",
                    "questionNo": 6,
                    "correct": false,
                    "extraPoints": 0,
                    "attempts": 0,
                    "submission": "",
                    "noAnswer": false,
                    "answerDesc": "Answer format: ***"
                },
                {
                    "question": "<p>What link was found?<br /></p>",
                    "hint": "",
                    "questionNo": 7,
                    "correct": false,
                    "extraPoints": 0,
                    "attempts": 0,
                    "submission": "",
                    "noAnswer": false,
                    "answerDesc": "Answer format: *******"
                },
                {
                    "question": "<p>What number was in the link?<br /></p>",
                    "hint": "Cash me outside - howbow dah? (Dashes are the devil and should be left at home)",
                    "questionNo": 8,
                    "correct": false,
                    "extraPoints": 0,
                    "attempts": 0,
                    "submission": "",
                    "noAnswer": false,
                    "answerDesc": "Answer format: *** **** ***"
                }
            ],
            "uploadId": "",
            "questions": [
                {
                    "questionNo": 1,
                    "question": "What was the password to open the archive.dmg file?<br />",
                    "hint": ""
                },
                {
                    "questionNo": 2,
                    "question": "<p>What was in the archive.dmg file?<br /></p>",
                    "hint": "Name in lowercase as it is found."
                },
                {
                    "questionNo": 3,
                    "question": "<p>What was the password for what was found inside the archive.dmg file?<br /></p>",
                    "hint": "We already gave you the password you just didn't listen!"
                },
                {
                    "questionNo": 4,
                    "question": "What is the password for this file:  Xfinity_install_file?<br />",
                    "hint": "One of these things isn't like the other, neither is chaos when you get into twitter battles."
                },
                {
                    "questionNo": 5,
                    "question": "<p>What is the flag inside of the Xfinity_install_file?<br /></p>",
                    "hint": "Go get your aol_boot disk!"
                },
                {
                    "questionNo": 6,
                    "question": "<p>What type of file was encrypted with a password?<br /></p>",
                    "hint": ""
                },
                {
                    "questionNo": 7,
                    "question": "<p>What link was found?<br /></p>",
                    "hint": ""
                },
                {
                    "questionNo": 8,
                    "question": "<p>What number was in the link?<br /></p>",
                    "hint": "Cash me outside - howbow dah? (Dashes are the devil and should be left at home)"
                }
            ]
        }
    ],
    "totalTasks": 6,
    "containsStaticSites": false
}